"gamemenu"
{
	"0"
	{
		"label"	""
		"command"	"OpenServerBrowser"
		"ingameorder"	"0"
	}
	"1"
	{
		"label"	""
		"command"	"Quit"
		"ingameorder"	"1"
	}
	"2"
	{
		"label"	""
		"command"	"OpenPlayerListDialog"
		"ingameorder"	"2"
	}
	"3"
	{
		"command"	"OpenOptionsDialog"
		"ingameorder"	"3"
	}
}
